[
  {
    "id": 1,
    "first_name": "Estevan",
    "last_name": "Strippling",
    "telephone": "2513072799",
    "email": "estrippling0@wired.com",
    "profile_image": "http://dummyimage.com/250x250.png/5fa2dd/ffffff",
    "listings": [
      {
        "address": "89757 Arkansas Parkway",
        "description": "Fusce posuere felis sed lacus. Morbi sem mauris, laoreet ut, rhoncus aliquet, pulvinar sed, nisl. Nunc rhoncus dui vel sem.",
        "latitude": 26.511966,
        "longitude": -78.640226,
        "images": [
          "https://thisrentaldoesnotexist.com/img-new/img1.jpg"
        ]
      },
      {
        "address": "218 Superior Park",
        "description": "Proin interdum mauris non ligula pellentesque ultrices. Phasellus id sapien in sapien iaculis congue. Vivamus metus arcu, adipiscing molestie, hendrerit at, vulputate vitae, nisl.",
        "latitude": 6.691667,
        "longitude": 143.041667,
        "images": [
          "https://thisrentaldoesnotexist.com/img-new/img1.jpg",
          "https://thisrentaldoesnotexist.com/img-new/img2.jpg"
        ]
      },
      {
        "address": "234 Ronald Regan Pass",
        "description": "Vestibulum ac est lacinia nisi venenatis tristique. Fusce congue, diam id ornare imperdiet, sapien urna pretium nisl, ut volutpat sapien arcu sed augue. Aliquam erat volutpat.",
        "latitude": 28.1328796,
        "longitude": -15.4393074,
        "images": [
          "https://thisrentaldoesnotexist.com/img-new/img1.jpg",
          "https://thisrentaldoesnotexist.com/img-new/img2.jpg",
          "https://thisrentaldoesnotexist.com/img-new/img3.jpg",
          "https://thisrentaldoesnotexist.com/img-new/img4.jpg"
        ]
      },
      {
        "address": "4 Northview Point",
        "description": "Morbi non lectus. Aliquam sit amet diam in magna bibendum imperdiet. Nullam orci pede, venenatis non, sodales sed, tincidunt eu, felis.",
        "latitude": 50.2566859,
        "longitude": 18.1939394,
        "images": [
          "https://thisrentaldoesnotexist.com/img-new/img1.jpg",
          "https://thisrentaldoesnotexist.com/img-new/img2.jpg",
          "https://thisrentaldoesnotexist.com/img-new/img3.jpg"
        ]
      },
      {
        "address": "81 Golden Leaf Junction",
        "description": "Aliquam quis turpis eget elit sodales scelerisque. Mauris sit amet eros. Suspendisse accumsan tortor quis turpis.",
        "latitude": -13.2026069,
        "longitude": 49.0514094,
        "images": [
          "https://thisrentaldoesnotexist.com/img-new/img1.jpg"
        ]
      },
      {
        "address": "2 Kinsman Hill",
        "description": "Nam ultrices, libero non mattis pulvinar, nulla pede ullamcorper augue, a suscipit nulla elit ac nulla. Sed vel enim sit amet nunc viverra dapibus. Nulla suscipit ligula in lacus.",
        "latitude": 32.64519,
        "longitude": 35.77722,
        "images": [
          "https://thisrentaldoesnotexist.com/img-new/img1.jpg"
        ]
      }
    ]
  },
  {
    "id": 2,
    "first_name": "Gunilla",
    "last_name": "Dallywater",
    "telephone": "7631593905",
    "email": "gdallywater1@businesswire.com",
    "profile_image": "http://dummyimage.com/250x250.png/cc0000/ffffff",
    "listings": [
      {
        "address": "13 Elka Lane",
        "description": "Morbi non lectus. Aliquam sit amet diam in magna bibendum imperdiet. Nullam orci pede, venenatis non, sodales sed, tincidunt eu, felis.",
        "latitude": 55.9424359,
        "longitude": 37.3473833,
        "images": [
          "https://thisrentaldoesnotexist.com/img-new/img1.jpg",
          "https://thisrentaldoesnotexist.com/img-new/img2.jpg",
          "https://thisrentaldoesnotexist.com/img-new/img3.jpg"
        ]
      },
      {
        "address": "897 Shasta Center",
        "description": "Aenean lectus. Pellentesque eget nunc. Donec quis orci eget orci vehicula condimentum.",
        "latitude": -15.1497334,
        "longitude": -51.852273,
        "images": [
          "https://thisrentaldoesnotexist.com/img-new/img1.jpg",
          "https://thisrentaldoesnotexist.com/img-new/img2.jpg"
        ]
      },
      {
        "address": "234 Ronald Regan Trail",
        "description": "Maecenas tristique, est et tempus semper, est quam pharetra magna, ac consequat metus sapien ut nunc. Vestibulum ante ipsum primis in faucibus orci luctus et ultrices posuere cubilia Curae; Mauris viverra diam vitae quam. Suspendisse potenti.",
        "latitude": 6.691667,
        "longitude": 143.041667,
        "images": [
          "https://thisrentaldoesnotexist.com/img-new/img1.jpg",
          "https://thisrentaldoesnotexist.com/img-new/img2.jpg"
        ]
      },
      {
        "address": "37 John Wall Lane",
        "description": "In sagittis dui vel nisl. Duis ac nibh. Fusce lacus purus, aliquet at, feugiat non, pretium quis, lectus.",
        "latitude": 54.6516221,
        "longitude": 21.0668477,
        "images": [
          "https://thisrentaldoesnotexist.com/img-new/img1.jpg",
          "https://thisrentaldoesnotexist.com/img-new/img2.jpg",
          "https://thisrentaldoesnotexist.com/img-new/img3.jpg"
        ]
      },
      {
        "address": "648 Hagan Court",
        "description": "Aenean fermentum. Donec ut mauris eget massa tempor convallis. Nulla neque libero, convallis eget, eleifend luctus, ultricies eu, nibh.",
        "latitude": 39.4643574,
        "longitude": 21.6928339,
        "images": [
          "https://thisrentaldoesnotexist.com/img-new/img1.jpg"
        ]
      },
      {
        "address": "3337 Arapahoe Junction",
        "description": "Integer ac leo. Pellentesque ultrices mattis odio. Donec vitae nisi.",
        "latitude": -6.97632,
        "longitude": 109.471802,
        "images": [
          "https://thisrentaldoesnotexist.com/img-new/img1.jpg"
        ]
      },
      {
        "address": "04388 Paget Park",
        "description": "Praesent blandit. Nam nulla. Integer pede justo, lacinia eget, tincidunt eget, tempus vel, pede.",
        "latitude": 40.4709245,
        "longitude": -7.9185148,
        "images": [
          "https://thisrentaldoesnotexist.com/img-new/img1.jpg",
          "https://thisrentaldoesnotexist.com/img-new/img2.jpg"
        ]
      },
      {
        "address": "355 Center Plaza",
        "description": "In hac habitasse platea dictumst. Etiam faucibus cursus urna. Ut tellus.",
        "latitude": 34.1672881,
        "longitude": -118.153228,
        "images": [
          "https://thisrentaldoesnotexist.com/img-new/img1.jpg"
        ]
      }
    ]
  },
  {
    "id": 3,
    "first_name": "Allys",
    "last_name": "Fernandes",
    "telephone": "2129348687",
    "email": "afernandes2@hhs.gov",
    "profile_image": "http://dummyimage.com/250x250.png/ff4444/ffffff",
    "listings": [
      {
        "address": "0 Delladonna Junction",
        "description": "Proin interdum mauris non ligula pellentesque ultrices. Phasellus id sapien in sapien iaculis congue. Vivamus metus arcu, adipiscing molestie, hendrerit at, vulputate vitae, nisl.",
        "latitude": -7.643739,
        "longitude": 110.284601,
        "images": [
          "https://thisrentaldoesnotexist.com/img-new/img1.jpg",
          "https://thisrentaldoesnotexist.com/img-new/img2.jpg"
        ]
      },
      {
        "address": "56337 Tomscot Junction",
        "description": "Sed sagittis. Nam congue, risus semper porta volutpat, quam pede lobortis ligula, sit amet eleifend pede libero quis orci. Nullam molestie nibh in lectus.",
        "latitude": 34.6495513,
        "longitude": -3.8629852,
        "images": [
          "https://thisrentaldoesnotexist.com/img-new/img1.jpg",
          "https://thisrentaldoesnotexist.com/img-new/img2.jpg",
          "https://thisrentaldoesnotexist.com/img-new/img3.jpg"
        ]
      },
      {
        "address": "927 Drewry Terrace",
        "description": "Praesent id massa id nisl venenatis lacinia. Aenean sit amet justo. Morbi ut odio.",
        "latitude": -6.334631,
        "longitude": 106.9093,
        "images": [
          "https://thisrentaldoesnotexist.com/img-new/img1.jpg",
          "https://thisrentaldoesnotexist.com/img-new/img2.jpg",
          "https://thisrentaldoesnotexist.com/img-new/img3.jpg"
        ]
      },
      {
        "address": "5 Elka Road",
        "description": "Aenean fermentum. Donec ut mauris eget massa tempor convallis. Nulla neque libero, convallis eget, eleifend luctus, ultricies eu, nibh.",
        "latitude": -2.8385304,
        "longitude": 32.4212424,
        "images": [
          "https://thisrentaldoesnotexist.com/img-new/img1.jpg"
        ]
      },
      {
        "address": "92 Kensington Terrace",
        "description": "Phasellus in felis. Donec semper sapien a libero. Nam dui.",
        "latitude": 25.401313,
        "longitude": 114.362112,
        "images": [
          "https://thisrentaldoesnotexist.com/img-new/img1.jpg",
          "https://thisrentaldoesnotexist.com/img-new/img2.jpg"
        ]
      },
      {
        "address": "47302 Heffernan Trail",
        "description": "Nullam porttitor lacus at turpis. Donec posuere metus vitae ipsum. Aliquam non mauris.",
        "latitude": 52.2649866,
        "longitude": 18.4265865,
        "images": [
          "https://thisrentaldoesnotexist.com/img-new/img1.jpg",
          "https://thisrentaldoesnotexist.com/img-new/img2.jpg",
          "https://thisrentaldoesnotexist.com/img-new/img3.jpg",
          "https://thisrentaldoesnotexist.com/img-new/img4.jpg"
        ]
      },
      {
        "address": "5 North Terrace",
        "description": "Fusce consequat. Nulla nisl. Nunc nisl.",
        "latitude": 40.2861415,
        "longitude": 23.390846,
        "images": [
          "https://thisrentaldoesnotexist.com/img-new/img1.jpg",
          "https://thisrentaldoesnotexist.com/img-new/img2.jpg",
          "https://thisrentaldoesnotexist.com/img-new/img3.jpg"
        ]
      },
      {
        "address": "3132 Dorton Junction",
        "description": "Suspendisse potenti. In eleifend quam a odio. In hac habitasse platea dictumst.",
        "latitude": 53.7080404,
        "longitude": 87.8049523,
        "images": [
          "https://thisrentaldoesnotexist.com/img-new/img1.jpg",
          "https://thisrentaldoesnotexist.com/img-new/img2.jpg"
        ]
      },
      {
        "address": "96 Rusk Road",
        "description": "Etiam vel augue. Vestibulum rutrum rutrum neque. Aenean auctor gravida sem.",
        "latitude": -24.7592533,
        "longitude": -51.7601166,
        "images": [
          "https://thisrentaldoesnotexist.com/img-new/img1.jpg",
          "https://thisrentaldoesnotexist.com/img-new/img2.jpg"
        ]
      }
    ]
  },
  {
    "id": 4,
    "first_name": "Arielle",
    "last_name": "Moens",
    "telephone": "9161163988",
    "email": "amoens3@bravesites.com",
    "profile_image": "https://thisrentaldoesnotexist.com/img-new/img1.jpg",
    "listings": [
      {
        "address": "3 Elka Avenue",
        "description": "Fusce posuere felis sed lacus. Morbi sem mauris, laoreet ut, rhoncus aliquet, pulvinar sed, nisl. Nunc rhoncus dui vel sem.",
        "latitude": 14.8904575,
        "longitude": 5.2579968,
        "images": [
          "https://thisrentaldoesnotexist.com/img-new/img1.jpg"
        ]
      },
      {
        "address": "3907 Park Meadow Junction",
        "description": "Duis consequat dui nec nisi volutpat eleifend. Donec ut dolor. Morbi vel lectus in quam fringilla rhoncus.",
        "latitude": 30.921396,
        "longitude": 112.444197,
        "images": [
          "https://thisrentaldoesnotexist.com/img-new/img1.jpg",
          "https://thisrentaldoesnotexist.com/img-new/img2.jpg",
          "https://thisrentaldoesnotexist.com/img-new/img3.jpg"
        ]
      },
      {
        "address": "902 Packers Trail",
        "description": "Vestibulum quam sapien, varius ut, blandit non, interdum in, ante. Vestibulum ante ipsum primis in faucibus orci luctus et ultrices posuere cubilia Curae; Duis faucibus accumsan odio. Curabitur convallis.",
        "latitude": 12.5450478,
        "longitude": -87.1659731,
        "images": [
          "https://thisrentaldoesnotexist.com/img-new/img1.jpg"
        ]
      },
      {
        "address": "0466 Burning Wood Crossing",
        "description": "Nullam porttitor lacus at turpis. Donec posuere metus vitae ipsum. Aliquam non mauris.",
        "latitude": -7.2623348,
        "longitude": 38.7368187,
        "images": [
          "https://thisrentaldoesnotexist.com/img-new/img1.jpg",
          "https://thisrentaldoesnotexist.com/img-new/img2.jpg",
          "https://thisrentaldoesnotexist.com/img-new/img3.jpg"
        ]
      },
      {
        "address": "46 Drewry Street",
        "description": "Maecenas ut massa quis augue luctus tincidunt. Nulla mollis molestie lorem. Quisque ut erat.",
        "latitude": -1.7618311,
        "longitude": -55.8638155,
        "images": [
          "https://thisrentaldoesnotexist.com/img-new/img1.jpg"
        ]
      },
      {
        "address": "48 Beilfuss Hill",
        "description": "Etiam vel augue. Vestibulum rutrum rutrum neque. Aenean auctor gravida sem.",
        "latitude": 25.130594,
        "longitude": 109.768451,
        "images": [
          "https://thisrentaldoesnotexist.com/img-new/img1.jpg"
        ]
      },
      {
        "address": "0 Sullivan Avenue",
        "description": "Sed ante. Vivamus tortor. Duis mattis egestas metus.",
        "latitude": 24.629264,
        "longitude": 118.041444,
        "images": [
          "https://thisrentaldoesnotexist.com/img-new/img1.jpg",
          "https://thisrentaldoesnotexist.com/img-new/img2.jpg",
          "https://thisrentaldoesnotexist.com/img-new/img3.jpg"
        ]
      },
      {
        "address": "43877 Anderson Terrace",
        "description": "Praesent id massa id nisl venenatis lacinia. Aenean sit amet justo. Morbi ut odio.",
        "latitude": -6.9460598,
        "longitude": 111.8151245,
        "images": [
          "https://thisrentaldoesnotexist.com/img-new/img1.jpg",
          "https://thisrentaldoesnotexist.com/img-new/img2.jpg",
          "https://thisrentaldoesnotexist.com/img-new/img3.jpg"
        ]
      }
    ]
  },
  {
    "id": 5,
    "first_name": "Eada",
    "last_name": "Kleyn",
    "telephone": "9048370854",
    "email": "ekleyn4@wikispaces.com",
    "profile_image": "http://dummyimage.com/250x250.png/ff4444/ffffff",
    "listings": [
      {
        "address": "0 Emmet Plaza",
        "description": "Proin eu mi. Nulla ac enim. In tempor, turpis nec euismod scelerisque, quam turpis adipiscing lorem, vitae mattis nibh ligula nec sem.",
        "latitude": 39.8726158,
        "longitude": 45.3575191,
        "images": [
          "https://thisrentaldoesnotexist.com/img-new/img1.jpg",
          "https://thisrentaldoesnotexist.com/img-new/img2.jpg",
          "https://thisrentaldoesnotexist.com/img-new/img3.jpg"
        ]
      },
      {
        "address": "9 Knutson Road",
        "description": "Integer ac leo. Pellentesque ultrices mattis odio. Donec vitae nisi.",
        "latitude": 53.9699233,
        "longitude": 121.9453937,
        "images": [
          "https://thisrentaldoesnotexist.com/img-new/img1.jpg"
        ]
      },
      {
        "address": "894 Leroy Pass",
        "description": "Maecenas tristique, est et tempus semper, est quam pharetra magna, ac consequat metus sapien ut nunc. Vestibulum ante ipsum primis in faucibus orci luctus et ultrices posuere cubilia Curae; Mauris viverra diam vitae quam. Suspendisse potenti.",
        "latitude": -2.9118209,
        "longitude": 119.3250347,
        "images": [
          "https://thisrentaldoesnotexist.com/img-new/img1.jpg"
        ]
      },
      {
        "address": "5409 Algoma Hill",
        "description": "Morbi porttitor lorem id ligula. Suspendisse ornare consequat lectus. In est risus, auctor sed, tristique in, tempus sit amet, sem.",
        "latitude": 58.3374462,
        "longitude": 12.5693818,
        "images": [
          "https://thisrentaldoesnotexist.com/img-new/img1.jpg",
          "https://thisrentaldoesnotexist.com/img-new/img2.jpg",
          "https://thisrentaldoesnotexist.com/img-new/img3.jpg",
          "https://thisrentaldoesnotexist.com/img-new/img4.jpg"
        ]
      },
      {
        "address": "662 Ridge Oak Terrace",
        "description": "Morbi porttitor lorem id ligula. Suspendisse ornare consequat lectus. In est risus, auctor sed, tristique in, tempus sit amet, sem.",
        "latitude": 50.5624395,
        "longitude": 14.297845,
        "images": [
          "https://thisrentaldoesnotexist.com/img-new/img1.jpg"
        ]
      },
      {
        "address": "302 Thompson Trail",
        "description": "Cras non velit nec nisi vulputate nonummy. Maecenas tincidunt lacus at velit. Vivamus vel nulla eget eros elementum pellentesque.",
        "latitude": -37.3130297,
        "longitude": -59.0746886,
        "images": [
          "https://thisrentaldoesnotexist.com/img-new/img1.jpg",
          "https://thisrentaldoesnotexist.com/img-new/img2.jpg",
          "https://thisrentaldoesnotexist.com/img-new/img3.jpg"
        ]
      },
      {
        "address": "8 Hallows Crossing",
        "description": "In congue. Etiam justo. Etiam pretium iaculis justo.",
        "latitude": 12.5640276,
        "longitude": 123.7304111,
        "images": [
          "https://thisrentaldoesnotexist.com/img-new/img1.jpg",
          "https://thisrentaldoesnotexist.com/img-new/img2.jpg",
          "https://thisrentaldoesnotexist.com/img-new/img3.jpg"
        ]
      },
      {
        "address": "3 Northwestern Park",
        "description": "Quisque id justo sit amet sapien dignissim vestibulum. Vestibulum ante ipsum primis in faucibus orci luctus et ultrices posuere cubilia Curae; Nulla dapibus dolor vel est. Donec odio justo, sollicitudin ut, suscipit a, feugiat et, eros.",
        "latitude": 65.3244225,
        "longitude": 21.4323137,
        "images": [
          "https://thisrentaldoesnotexist.com/img-new/img1.jpg",
          "https://thisrentaldoesnotexist.com/img-new/img2.jpg",
          "https://thisrentaldoesnotexist.com/img-new/img3.jpg"
        ]
      }
    ]
  },
  {
    "id": 6,
    "first_name": "Tuckie",
    "last_name": "Lehrian",
    "telephone": "7723994891",
    "email": "tlehrian5@youtube.com",
    "profile_image": "http://dummyimage.com/250x250.png/5fa2dd/ffffff",
    "listings": [
      {
        "address": "32 Village Green Road",
        "description": "Donec diam neque, vestibulum eget, vulputate ut, ultrices vel, augue. Vestibulum ante ipsum primis in faucibus orci luctus et ultrices posuere cubilia Curae; Donec pharetra, magna vestibulum aliquet ultrices, erat tortor sollicitudin mi, sit amet lobortis sapien sapien non mi. Integer ac neque.",
        "latitude": 29.474413,
        "longitude": 110.166477,
        "images": [
          "https://thisrentaldoesnotexist.com/img-new/img1.jpg",
          "https://thisrentaldoesnotexist.com/img-new/img2.jpg"
        ]
      },
      {
        "address": "604 Cambridge Hill",
        "description": "Cum sociis natoque penatibus et magnis dis parturient montes, nascetur ridiculus mus. Vivamus vestibulum sagittis sapien. Cum sociis natoque penatibus et magnis dis parturient montes, nascetur ridiculus mus.",
        "latitude": -7.1845289,
        "longitude": 111.5572638,
        "images": [
          "https://thisrentaldoesnotexist.com/img-new/img1.jpg"
        ]
      },
      {
        "address": "236 Bartillon Park",
        "description": "Aenean lectus. Pellentesque eget nunc. Donec quis orci eget orci vehicula condimentum.",
        "latitude": 59.3887625,
        "longitude": 30.2867644,
        "images": [
          "https://thisrentaldoesnotexist.com/img-new/img1.jpg"
        ]
      },
      {
        "address": "73589 Vidon Circle",
        "description": "Curabitur in libero ut massa volutpat convallis. Morbi odio odio, elementum eu, interdum eu, tincidunt in, leo. Maecenas pulvinar lobortis est.",
        "latitude": 44.8722614,
        "longitude": 64.764401,
        "images": [
          "https://thisrentaldoesnotexist.com/img-new/img1.jpg",
          "https://thisrentaldoesnotexist.com/img-new/img2.jpg"
        ]
      },
      {
        "address": "0 Blaine Parkway",
        "description": "Vestibulum quam sapien, varius ut, blandit non, interdum in, ante. Vestibulum ante ipsum primis in faucibus orci luctus et ultrices posuere cubilia Curae; Duis faucibus accumsan odio. Curabitur convallis.",
        "latitude": 37.3,
        "longitude": 85.5,
        "images": [
          "https://thisrentaldoesnotexist.com/img-new/img1.jpg",
          "https://thisrentaldoesnotexist.com/img-new/img2.jpg"
        ]
      },
      {
        "address": "096 Stuart Alley",
        "description": "In congue. Etiam justo. Etiam pretium iaculis justo.",
        "latitude": 43.4945737,
        "longitude": 5.8978018,
        "images": [
          "https://thisrentaldoesnotexist.com/img-new/img1.jpg",
          "https://thisrentaldoesnotexist.com/img-new/img2.jpg",
          "https://thisrentaldoesnotexist.com/img-new/img3.jpg"
        ]
      },
      {
        "address": "9615 Gale Avenue",
        "description": "Phasellus in felis. Donec semper sapien a libero. Nam dui.",
        "latitude": 45.0769115,
        "longitude": -64.4944735,
        "images": [
          "https://thisrentaldoesnotexist.com/img-new/img1.jpg"
        ]
      },
      {
        "address": "15 Sunnyside Pass",
        "description": "Etiam vel augue. Vestibulum rutrum rutrum neque. Aenean auctor gravida sem.",
        "latitude": 9.6588232,
        "longitude": -84.0995948,
        "images": [
          "https://thisrentaldoesnotexist.com/img-new/img1.jpg",
          "https://thisrentaldoesnotexist.com/img-new/img2.jpg",
          "https://thisrentaldoesnotexist.com/img-new/img3.jpg",
          "https://thisrentaldoesnotexist.com/img-new/img4.jpg"
        ]
      },
      {
        "address": "1017 Pennsylvania Junction",
        "description": "Aliquam quis turpis eget elit sodales scelerisque. Mauris sit amet eros. Suspendisse accumsan tortor quis turpis.",
        "latitude": -17.8907823,
        "longitude": -51.7176899,
        "images": [
          "https://thisrentaldoesnotexist.com/img-new/img1.jpg",
          "https://thisrentaldoesnotexist.com/img-new/img2.jpg",
          "https://thisrentaldoesnotexist.com/img-new/img3.jpg",
          "https://thisrentaldoesnotexist.com/img-new/img4.jpg"
        ]
      }
    ]
  },
  {
    "id": 7,
    "first_name": "Emelina",
    "last_name": "Acome",
    "telephone": "2529014869",
    "email": "eacome6@fc2.com",
    "profile_image": "https://thisrentaldoesnotexist.com/img-new/img1.jpg",
    "listings": [
      {
        "address": "8 Schurz Street",
        "description": "Proin leo odio, porttitor id, consequat in, consequat ut, nulla. Sed accumsan felis. Ut at dolor quis odio consequat varius.",
        "latitude": 11.2533569,
        "longitude": 122.7339098,
        "images": [
          "https://thisrentaldoesnotexist.com/img-new/img1.jpg"
        ]
      },
      {
        "address": "9 Talisman Avenue",
        "description": "In hac habitasse platea dictumst. Etiam faucibus cursus urna. Ut tellus.",
        "latitude": 13.4211757,
        "longitude": 8.4760154,
        "images": [
          "https://thisrentaldoesnotexist.com/img-new/img1.jpg"
        ]
      },
      {
        "address": "10 Surrey Plaza",
        "description": "Duis aliquam convallis nunc. Proin at turpis a pede posuere nonummy. Integer non velit.",
        "latitude": 28.018107,
        "longitude": 111.945153,
        "images": [
          "https://thisrentaldoesnotexist.com/img-new/img1.jpg"
        ]
      },
      {
        "address": "371 Straubel Park",
        "description": "Integer ac leo. Pellentesque ultrices mattis odio. Donec vitae nisi.",
        "latitude": 31.264698,
        "longitude": 110.839164,
        "images": [
          "https://thisrentaldoesnotexist.com/img-new/img1.jpg",
          "https://thisrentaldoesnotexist.com/img-new/img2.jpg"
        ]
      },
      {
        "address": "283 Hoard Junction",
        "description": "Donec diam neque, vestibulum eget, vulputate ut, ultrices vel, augue. Vestibulum ante ipsum primis in faucibus orci luctus et ultrices posuere cubilia Curae; Donec pharetra, magna vestibulum aliquet ultrices, erat tortor sollicitudin mi, sit amet lobortis sapien sapien non mi. Integer ac neque.",
        "latitude": 55.6691322,
        "longitude": 36.5321926,
        "images": [
          "https://thisrentaldoesnotexist.com/img-new/img1.jpg",
          "https://thisrentaldoesnotexist.com/img-new/img2.jpg",
          "https://thisrentaldoesnotexist.com/img-new/img3.jpg"
        ]
      },
      {
        "address": "390 Scott Way",
        "description": "Proin interdum mauris non ligula pellentesque ultrices. Phasellus id sapien in sapien iaculis congue. Vivamus metus arcu, adipiscing molestie, hendrerit at, vulputate vitae, nisl.",
        "latitude": 38.6223353,
        "longitude": -9.0891772,
        "images": [
          "https://thisrentaldoesnotexist.com/img-new/img1.jpg",
          "https://thisrentaldoesnotexist.com/img-new/img2.jpg"
        ]
      },
      {
        "address": "56 Novick Alley",
        "description": "Sed sagittis. Nam congue, risus semper porta volutpat, quam pede lobortis ligula, sit amet eleifend pede libero quis orci. Nullam molestie nibh in lectus.",
        "latitude": 49.5458457,
        "longitude": 19.0802389,
        "images": [
          "https://thisrentaldoesnotexist.com/img-new/img1.jpg",
          "https://thisrentaldoesnotexist.com/img-new/img2.jpg",
          "https://thisrentaldoesnotexist.com/img-new/img3.jpg"
        ]
      },
      {
        "address": "2621 Graedel Drive",
        "description": "Duis bibendum, felis sed interdum venenatis, turpis enim blandit mi, in porttitor pede justo eu massa. Donec dapibus. Duis at velit eu est congue elementum.",
        "latitude": 15.18533,
        "longitude": 43.51122,
        "images": [
          "https://thisrentaldoesnotexist.com/img-new/img1.jpg",
          "https://thisrentaldoesnotexist.com/img-new/img2.jpg",
          "https://thisrentaldoesnotexist.com/img-new/img3.jpg"
        ]
      },
      {
        "address": "4605 Dennis Street",
        "description": "Duis bibendum. Morbi non quam nec dui luctus rutrum. Nulla tellus.",
        "latitude": 11.2975389,
        "longitude": 6.4956455,
        "images": [
          "https://thisrentaldoesnotexist.com/img-new/img1.jpg",
          "https://thisrentaldoesnotexist.com/img-new/img2.jpg",
          "https://thisrentaldoesnotexist.com/img-new/img3.jpg"
        ]
      }
    ]
  },
  {
    "id": 8,
    "first_name": "Sayres",
    "last_name": "Wulfinger",
    "telephone": "1604299297",
    "email": "swulfinger7@mashable.com",
    "profile_image": "https://thisrentaldoesnotexist.com/img-new/img1.jpg",
    "listings": [
      {
        "address": "67 Texas Drive",
        "description": "Suspendisse potenti. In eleifend quam a odio. In hac habitasse platea dictumst.",
        "latitude": -43.2744697,
        "longitude": -65.3109259,
        "images": [
          "https://thisrentaldoesnotexist.com/img-new/img1.jpg"
        ]
      },
      {
        "address": "93318 Oneill Trail",
        "description": "Maecenas leo odio, condimentum id, luctus nec, molestie sed, justo. Pellentesque viverra pede ac diam. Cras pellentesque volutpat dui.",
        "latitude": 51.5742615,
        "longitude": 5.0840393,
        "images": [
          "https://thisrentaldoesnotexist.com/img-new/img1.jpg",
          "https://thisrentaldoesnotexist.com/img-new/img2.jpg",
          "https://thisrentaldoesnotexist.com/img-new/img3.jpg"
        ]
      },
      {
        "address": "67765 Lakewood Avenue",
        "description": "Proin leo odio, porttitor id, consequat in, consequat ut, nulla. Sed accumsan felis. Ut at dolor quis odio consequat varius.",
        "latitude": -37.9867271,
        "longitude": -57.6075687,
        "images": [
          "https://thisrentaldoesnotexist.com/img-new/img1.jpg"
        ]
      },
      {
        "address": "0 Valley Edge Circle",
        "description": "Aliquam quis turpis eget elit sodales scelerisque. Mauris sit amet eros. Suspendisse accumsan tortor quis turpis.",
        "latitude": 28.2227572,
        "longitude": 81.3289397,
        "images": [
          "https://thisrentaldoesnotexist.com/img-new/img1.jpg",
          "https://thisrentaldoesnotexist.com/img-new/img2.jpg",
          "https://thisrentaldoesnotexist.com/img-new/img3.jpg"
        ]
      },
      {
        "address": "0 Comanche Trail",
        "description": "Cras mi pede, malesuada in, imperdiet et, commodo vulputate, justo. In blandit ultrices enim. Lorem ipsum dolor sit amet, consectetuer adipiscing elit.",
        "latitude": 10.3895862,
        "longitude": -71.4692843,
        "images": [
          "https://thisrentaldoesnotexist.com/img-new/img1.jpg"
        ]
      },
      {
        "address": "6830 Cardinal Hill",
        "description": "Mauris enim leo, rhoncus sed, vestibulum sit amet, cursus id, turpis. Integer aliquet, massa id lobortis convallis, tortor risus dapibus augue, vel accumsan tellus nisi eu orci. Mauris lacinia sapien quis libero.",
        "latitude": -6.97,
        "longitude": 113.0758,
        "images": [
          "https://thisrentaldoesnotexist.com/img-new/img1.jpg",
          "https://thisrentaldoesnotexist.com/img-new/img2.jpg"
        ]
      },
      {
        "address": "9065 Service Parkway",
        "description": "Integer ac leo. Pellentesque ultrices mattis odio. Donec vitae nisi.",
        "latitude": 7.28361,
        "longitude": 125.84222,
        "images": [
          "https://thisrentaldoesnotexist.com/img-new/img1.jpg",
          "https://thisrentaldoesnotexist.com/img-new/img2.jpg"
        ]
      },
      {
        "address": "18375 Norway Maple Way",
        "description": "Maecenas ut massa quis augue luctus tincidunt. Nulla mollis molestie lorem. Quisque ut erat.",
        "latitude": 23.020673,
        "longitude": 113.751799,
        "images": [
          "https://thisrentaldoesnotexist.com/img-new/img1.jpg",
          "https://thisrentaldoesnotexist.com/img-new/img2.jpg",
          "https://thisrentaldoesnotexist.com/img-new/img3.jpg"
        ]
      },
      {
        "address": "9 Vahlen Lane",
        "description": "Duis aliquam convallis nunc. Proin at turpis a pede posuere nonummy. Integer non velit.",
        "latitude": 13.5699981,
        "longitude": -14.5611573,
        "images": [
          "https://thisrentaldoesnotexist.com/img-new/img1.jpg",
          "https://thisrentaldoesnotexist.com/img-new/img2.jpg",
          "https://thisrentaldoesnotexist.com/img-new/img3.jpg"
        ]
      }
    ]
  },
  {
    "id": 9,
    "first_name": "Vonni",
    "last_name": "Saunt",
    "telephone": "4131398186",
    "email": "vsaunt8@zdnet.com",
    "profile_image": "http://dummyimage.com/250x250.png/5fa2dd/ffffff",
    "listings": [
      {
        "address": "8 Dennis Crossing",
        "description": "Quisque id justo sit amet sapien dignissim vestibulum. Vestibulum ante ipsum primis in faucibus orci luctus et ultrices posuere cubilia Curae; Nulla dapibus dolor vel est. Donec odio justo, sollicitudin ut, suscipit a, feugiat et, eros.",
        "latitude": 55.2443128,
        "longitude": 34.3716169,
        "images": [
          "https://thisrentaldoesnotexist.com/img-new/img1.jpg",
          "https://thisrentaldoesnotexist.com/img-new/img2.jpg"
        ]
      },
      {
        "address": "9258 Holmberg Parkway",
        "description": "Duis bibendum. Morbi non quam nec dui luctus rutrum. Nulla tellus.",
        "latitude": 19.1601844,
        "longitude": 99.8571416,
        "images": [
          "https://thisrentaldoesnotexist.com/img-new/img1.jpg",
          "https://thisrentaldoesnotexist.com/img-new/img2.jpg"
        ]
      },
      {
        "address": "23243 Division Terrace",
        "description": "Sed ante. Vivamus tortor. Duis mattis egestas metus.",
        "latitude": 50.81667,
        "longitude": 27.03333,
        "images": [
          "https://thisrentaldoesnotexist.com/img-new/img1.jpg"
        ]
      },
      {
        "address": "99 Kensington Avenue",
        "description": "Fusce consequat. Nulla nisl. Nunc nisl.",
        "latitude": 52.1683391,
        "longitude": 18.553654,
        "images": [
          "https://thisrentaldoesnotexist.com/img-new/img1.jpg",
          "https://thisrentaldoesnotexist.com/img-new/img2.jpg"
        ]
      },
      {
        "address": "683 Fieldstone Pass",
        "description": "Duis bibendum, felis sed interdum venenatis, turpis enim blandit mi, in porttitor pede justo eu massa. Donec dapibus. Duis at velit eu est congue elementum.",
        "latitude": 18.298167,
        "longitude": 109.452379,
        "images": [
          "https://thisrentaldoesnotexist.com/img-new/img1.jpg",
          "https://thisrentaldoesnotexist.com/img-new/img2.jpg"
        ]
      }
    ]
  },
  {
    "id": 10,
    "first_name": "Hallsy",
    "last_name": "Ibbison",
    "telephone": "2561897682",
    "email": "hibbison9@e-recht24.de",
    "profile_image": "http://dummyimage.com/250x250.png/ff4444/ffffff",
    "listings": [
      {
        "address": "33 Twin Pines Point",
        "description": "Aliquam quis turpis eget elit sodales scelerisque. Mauris sit amet eros. Suspendisse accumsan tortor quis turpis.",
        "latitude": 25.386379,
        "longitude": 114.922922,
        "images": [
          "https://thisrentaldoesnotexist.com/img-new/img1.jpg"
        ]
      },
      {
        "address": "33022 Vahlen Road",
        "description": "Aliquam quis turpis eget elit sodales scelerisque. Mauris sit amet eros. Suspendisse accumsan tortor quis turpis.",
        "latitude": 30.718837,
        "longitude": 116.262661,
        "images": [
          "https://thisrentaldoesnotexist.com/img-new/img1.jpg"
        ]
      },
      {
        "address": "148 Darwin Circle",
        "description": "Cras mi pede, malesuada in, imperdiet et, commodo vulputate, justo. In blandit ultrices enim. Lorem ipsum dolor sit amet, consectetuer adipiscing elit.",
        "latitude": 58.6247472,
        "longitude": 59.8241142,
        "images": [
          "https://thisrentaldoesnotexist.com/img-new/img1.jpg",
          "https://thisrentaldoesnotexist.com/img-new/img2.jpg"
        ]
      },
      {
        "address": "0 Aberg Way",
        "description": "Sed sagittis. Nam congue, risus semper porta volutpat, quam pede lobortis ligula, sit amet eleifend pede libero quis orci. Nullam molestie nibh in lectus.",
        "latitude": 45.1459732,
        "longitude": 20.4917347,
        "images": [
          "https://thisrentaldoesnotexist.com/img-new/img1.jpg",
          "https://thisrentaldoesnotexist.com/img-new/img2.jpg",
          "https://thisrentaldoesnotexist.com/img-new/img3.jpg"
        ]
      },
      {
        "address": "58 Shoshone Avenue",
        "description": "Fusce posuere felis sed lacus. Morbi sem mauris, laoreet ut, rhoncus aliquet, pulvinar sed, nisl. Nunc rhoncus dui vel sem.",
        "latitude": 43.4595044,
        "longitude": 39.9310272,
        "images": [
          "https://thisrentaldoesnotexist.com/img-new/img1.jpg",
          "https://thisrentaldoesnotexist.com/img-new/img2.jpg"
        ]
      },
      {
        "address": "8992 Eagle Crest Lane",
        "description": "Nulla ut erat id mauris vulputate elementum. Nullam varius. Nulla facilisi.",
        "latitude": -26.8039789,
        "longitude": -48.6489134,
        "images": [
          "https://thisrentaldoesnotexist.com/img-new/img1.jpg",
          "https://thisrentaldoesnotexist.com/img-new/img2.jpg",
          "https://thisrentaldoesnotexist.com/img-new/img3.jpg"
        ]
      },
      {
        "address": "89 Barnett Street",
        "description": "Proin leo odio, porttitor id, consequat in, consequat ut, nulla. Sed accumsan felis. Ut at dolor quis odio consequat varius.",
        "latitude": -16.6948713,
        "longitude": -49.1019233,
        "images": [
          "https://thisrentaldoesnotexist.com/img-new/img1.jpg",
          "https://thisrentaldoesnotexist.com/img-new/img2.jpg"
        ]
      },
      {
        "address": "74764 Nova Court",
        "description": "Sed sagittis. Nam congue, risus semper porta volutpat, quam pede lobortis ligula, sit amet eleifend pede libero quis orci. Nullam molestie nibh in lectus.",
        "latitude": 0.4994734,
        "longitude": 101.4095405,
        "images": [
          "https://thisrentaldoesnotexist.com/img-new/img1.jpg",
          "https://thisrentaldoesnotexist.com/img-new/img2.jpg"
        ]
      },
      {
        "address": "52 Tomscot Park",
        "description": "Duis aliquam convallis nunc. Proin at turpis a pede posuere nonummy. Integer non velit.",
        "latitude": 45.4447185,
        "longitude": 18.8903084,
        "images": [
          "https://thisrentaldoesnotexist.com/img-new/img1.jpg",
          "https://thisrentaldoesnotexist.com/img-new/img2.jpg",
          "https://thisrentaldoesnotexist.com/img-new/img3.jpg"
        ]
      }
    ]
  },
  {
    "id": 11,
    "first_name": "Shelby",
    "last_name": "Ashmole",
    "telephone": "4472732211",
    "email": "sashmolea@weebly.com",
    "profile_image": "https://thisrentaldoesnotexist.com/img-new/img1.jpg",
    "listings": [
      {
        "address": "7628 Badeau Center",
        "description": "Cum sociis natoque penatibus et magnis dis parturient montes, nascetur ridiculus mus. Vivamus vestibulum sagittis sapien. Cum sociis natoque penatibus et magnis dis parturient montes, nascetur ridiculus mus.",
        "latitude": 54.1440921,
        "longitude": 26.2103909,
        "images": [
          "https://thisrentaldoesnotexist.com/img-new/img1.jpg",
          "https://thisrentaldoesnotexist.com/img-new/img2.jpg"
        ]
      },
      {
        "address": "47389 Kropf Street",
        "description": "Maecenas leo odio, condimentum id, luctus nec, molestie sed, justo. Pellentesque viverra pede ac diam. Cras pellentesque volutpat dui.",
        "latitude": 34.682497,
        "longitude": 103.359019,
        "images": [
          "https://thisrentaldoesnotexist.com/img-new/img1.jpg"
        ]
      },
      {
        "address": "1 Basil Circle",
        "description": "Etiam vel augue. Vestibulum rutrum rutrum neque. Aenean auctor gravida sem.",
        "latitude": 19.0077085,
        "longitude": -69.7320914,
        "images": [
          "https://thisrentaldoesnotexist.com/img-new/img1.jpg"
        ]
      },
      {
        "address": "5 Ronald Regan Trail",
        "description": "Quisque porta volutpat erat. Quisque erat eros, viverra eget, congue eget, semper rutrum, nulla. Nunc purus.",
        "latitude": 13.6343413,
        "longitude": 46.0563212,
        "images": [
          "https://thisrentaldoesnotexist.com/img-new/img1.jpg",
          "https://thisrentaldoesnotexist.com/img-new/img2.jpg"
        ]
      },
      {
        "address": "7 Lerdahl Terrace",
        "description": "Vestibulum quam sapien, varius ut, blandit non, interdum in, ante. Vestibulum ante ipsum primis in faucibus orci luctus et ultrices posuere cubilia Curae; Duis faucibus accumsan odio. Curabitur convallis.",
        "latitude": 39.893212,
        "longitude": 116.477516,
        "images": [
          "https://thisrentaldoesnotexist.com/img-new/img1.jpg",
          "https://thisrentaldoesnotexist.com/img-new/img2.jpg",
          "https://thisrentaldoesnotexist.com/img-new/img3.jpg"
        ]
      },
      {
        "address": "65 4th Park",
        "description": "Proin eu mi. Nulla ac enim. In tempor, turpis nec euismod scelerisque, quam turpis adipiscing lorem, vitae mattis nibh ligula nec sem.",
        "latitude": 57.9609962,
        "longitude": 46.6878846,
        "images": [
          "https://thisrentaldoesnotexist.com/img-new/img1.jpg",
          "https://thisrentaldoesnotexist.com/img-new/img2.jpg"
        ]
      },
      {
        "address": "8 Shopko Pass",
        "description": "Fusce posuere felis sed lacus. Morbi sem mauris, laoreet ut, rhoncus aliquet, pulvinar sed, nisl. Nunc rhoncus dui vel sem.",
        "latitude": -15.5319205,
        "longitude": -71.5490271,
        "images": [
          "https://thisrentaldoesnotexist.com/img-new/img1.jpg",
          "https://thisrentaldoesnotexist.com/img-new/img2.jpg",
          "https://thisrentaldoesnotexist.com/img-new/img3.jpg"
        ]
      }
    ]
  },
  {
    "id": 12,
    "first_name": "Ramon",
    "last_name": "Antosik",
    "telephone": "3953056336",
    "email": "rantosikb@storify.com",
    "profile_image": "http://dummyimage.com/250x250.png/5fa2dd/ffffff",
    "listings": [
      {
        "address": "9180 Dunning Junction",
        "description": "Aenean lectus. Pellentesque eget nunc. Donec quis orci eget orci vehicula condimentum.",
        "latitude": -12.1349328,
        "longitude": 44.4252603,
        "images": [
          "https://thisrentaldoesnotexist.com/img-new/img1.jpg",
          "https://thisrentaldoesnotexist.com/img-new/img2.jpg",
          "https://thisrentaldoesnotexist.com/img-new/img3.jpg"
        ]
      },
      {
        "address": "7834 Mandrake Way",
        "description": "Nulla ut erat id mauris vulputate elementum. Nullam varius. Nulla facilisi.",
        "latitude": 5.255906,
        "longitude": -75.1538939,
        "images": [
          "https://thisrentaldoesnotexist.com/img-new/img1.jpg"
        ]
      },
      {
        "address": "5 Moland Junction",
        "description": "Duis bibendum, felis sed interdum venenatis, turpis enim blandit mi, in porttitor pede justo eu massa. Donec dapibus. Duis at velit eu est congue elementum.",
        "latitude": 42.65,
        "longitude": 103.8,
        "images": [
          "https://thisrentaldoesnotexist.com/img-new/img1.jpg"
        ]
      },
      {
        "address": "22727 Grim Junction",
        "description": "Curabitur in libero ut massa volutpat convallis. Morbi odio odio, elementum eu, interdum eu, tincidunt in, leo. Maecenas pulvinar lobortis est.",
        "latitude": 26,
        "longitude": 99.8333333,
        "images": [
          "https://thisrentaldoesnotexist.com/img-new/img1.jpg",
          "https://thisrentaldoesnotexist.com/img-new/img2.jpg"
        ]
      },
      {
        "address": "46729 Pond Street",
        "description": "Aliquam quis turpis eget elit sodales scelerisque. Mauris sit amet eros. Suspendisse accumsan tortor quis turpis.",
        "latitude": 14.6046369,
        "longitude": 121.0526928,
        "images": [
          "https://thisrentaldoesnotexist.com/img-new/img1.jpg",
          "https://thisrentaldoesnotexist.com/img-new/img2.jpg"
        ]
      },
      {
        "address": "5181 Nova Road",
        "description": "Fusce consequat. Nulla nisl. Nunc nisl.",
        "latitude": -6.9623022,
        "longitude": 108.6383454,
        "images": [
          "https://thisrentaldoesnotexist.com/img-new/img1.jpg"
        ]
      },
      {
        "address": "72925 Ludington Point",
        "description": "In congue. Etiam justo. Etiam pretium iaculis justo.",
        "latitude": 44.142359,
        "longitude": 87.592379,
        "images": [
          "https://thisrentaldoesnotexist.com/img-new/img1.jpg"
        ]
      },
      {
        "address": "49340 Loeprich Center",
        "description": "Donec diam neque, vestibulum eget, vulputate ut, ultrices vel, augue. Vestibulum ante ipsum primis in faucibus orci luctus et ultrices posuere cubilia Curae; Donec pharetra, magna vestibulum aliquet ultrices, erat tortor sollicitudin mi, sit amet lobortis sapien sapien non mi. Integer ac neque.",
        "latitude": 51.0377167,
        "longitude": 16.450466,
        "images": [
          "https://thisrentaldoesnotexist.com/img-new/img1.jpg",
          "https://thisrentaldoesnotexist.com/img-new/img2.jpg",
          "https://thisrentaldoesnotexist.com/img-new/img3.jpg"
        ]
      },
      {
        "address": "95499 Glacier Hill Court",
        "description": "Donec diam neque, vestibulum eget, vulputate ut, ultrices vel, augue. Vestibulum ante ipsum primis in faucibus orci luctus et ultrices posuere cubilia Curae; Donec pharetra, magna vestibulum aliquet ultrices, erat tortor sollicitudin mi, sit amet lobortis sapien sapien non mi. Integer ac neque.",
        "latitude": 20.0450379,
        "longitude": 99.8913421,
        "images": [
          "https://thisrentaldoesnotexist.com/img-new/img1.jpg",
          "https://thisrentaldoesnotexist.com/img-new/img2.jpg"
        ]
      },
      {
        "address": "465 Mccormick Court",
        "description": "Vestibulum ac est lacinia nisi venenatis tristique. Fusce congue, diam id ornare imperdiet, sapien urna pretium nisl, ut volutpat sapien arcu sed augue. Aliquam erat volutpat.",
        "latitude": 39.3704516,
        "longitude": 22.9827384,
        "images": [
          "https://thisrentaldoesnotexist.com/img-new/img1.jpg"
        ]
      }
    ]
  },
  {
    "id": 13,
    "first_name": "Coleen",
    "last_name": "Burgise",
    "telephone": "4221902599",
    "email": "cburgisec@storify.com",
    "profile_image": "http://dummyimage.com/250x250.png/ff4444/ffffff",
    "listings": [
      {
        "address": "6 Cottonwood Court",
        "description": "Proin eu mi. Nulla ac enim. In tempor, turpis nec euismod scelerisque, quam turpis adipiscing lorem, vitae mattis nibh ligula nec sem.",
        "latitude": 2.0965805,
        "longitude": -70.5264934,
        "images": [
          "https://thisrentaldoesnotexist.com/img-new/img1.jpg",
          "https://thisrentaldoesnotexist.com/img-new/img2.jpg",
          "https://thisrentaldoesnotexist.com/img-new/img3.jpg"
        ]
      },
      {
        "address": "76605 Little Fleur Road",
        "description": "Duis consequat dui nec nisi volutpat eleifend. Donec ut dolor. Morbi vel lectus in quam fringilla rhoncus.",
        "latitude": 38.6169978,
        "longitude": -9.083874,
        "images": [
          "https://thisrentaldoesnotexist.com/img-new/img1.jpg",
          "https://thisrentaldoesnotexist.com/img-new/img2.jpg",
          "https://thisrentaldoesnotexist.com/img-new/img3.jpg"
        ]
      },
      {
        "address": "6946 Birchwood Drive",
        "description": "In hac habitasse platea dictumst. Morbi vestibulum, velit id pretium iaculis, diam erat fermentum justo, nec condimentum neque sapien placerat ante. Nulla justo.",
        "latitude": 18.4445307,
        "longitude": -69.9316834,
        "images": [
          "https://thisrentaldoesnotexist.com/img-new/img1.jpg"
        ]
      },
      {
        "address": "2510 Express Hill",
        "description": "Duis consequat dui nec nisi volutpat eleifend. Donec ut dolor. Morbi vel lectus in quam fringilla rhoncus.",
        "latitude": -33.6055625,
        "longitude": -62.6252102,
        "images": [
          "https://thisrentaldoesnotexist.com/img-new/img1.jpg",
          "https://thisrentaldoesnotexist.com/img-new/img2.jpg"
        ]
      },
      {
        "address": "74882 La Follette Drive",
        "description": "Cras mi pede, malesuada in, imperdiet et, commodo vulputate, justo. In blandit ultrices enim. Lorem ipsum dolor sit amet, consectetuer adipiscing elit.",
        "latitude": 41.1741505,
        "longitude": -8.6691157,
        "images": [
          "https://thisrentaldoesnotexist.com/img-new/img1.jpg"
        ]
      },
      {
        "address": "4299 Westerfield Terrace",
        "description": "Nullam porttitor lacus at turpis. Donec posuere metus vitae ipsum. Aliquam non mauris.",
        "latitude": -24.42787,
        "longitude": 26.023656,
        "images": [
          "https://thisrentaldoesnotexist.com/img-new/img1.jpg"
        ]
      }
    ]
  },
  {
    "id": 14,
    "first_name": "Hermia",
    "last_name": "Winkle",
    "telephone": "2389124483",
    "email": "hwinkled@craigslist.org",
    "profile_image": "http://dummyimage.com/250x250.png/cc0000/ffffff",
    "listings": [
      {
        "address": "4821 Hazelcrest Avenue",
        "description": "Vestibulum ac est lacinia nisi venenatis tristique. Fusce congue, diam id ornare imperdiet, sapien urna pretium nisl, ut volutpat sapien arcu sed augue. Aliquam erat volutpat.",
        "latitude": 49.4637092,
        "longitude": 8.560081,
        "images": [
          "https://thisrentaldoesnotexist.com/img-new/img1.jpg",
          "https://thisrentaldoesnotexist.com/img-new/img2.jpg",
          "https://thisrentaldoesnotexist.com/img-new/img3.jpg"
        ]
      },
      {
        "address": "3642 2nd Terrace",
        "description": "Duis bibendum. Morbi non quam nec dui luctus rutrum. Nulla tellus.",
        "latitude": 46.252804,
        "longitude": -72.9507829,
        "images": [
          "https://thisrentaldoesnotexist.com/img-new/img1.jpg",
          "https://thisrentaldoesnotexist.com/img-new/img2.jpg",
          "https://thisrentaldoesnotexist.com/img-new/img3.jpg"
        ]
      },
      {
        "address": "43 Redwing Pass",
        "description": "Lorem ipsum dolor sit amet, consectetuer adipiscing elit. Proin risus. Praesent lectus.",
        "latitude": 28.8828809,
        "longitude": 118.4675515,
        "images": [
          "https://thisrentaldoesnotexist.com/img-new/img1.jpg"
        ]
      },
      {
        "address": "4 Caliangt Center",
        "description": "Curabitur gravida nisi at nibh. In hac habitasse platea dictumst. Aliquam augue quam, sollicitudin vitae, consectetuer eget, rutrum at, lorem.",
        "latitude": 23.07555,
        "longitude": 112.007814,
        "images": [
          "https://thisrentaldoesnotexist.com/img-new/img1.jpg",
          "https://thisrentaldoesnotexist.com/img-new/img2.jpg",
          "https://thisrentaldoesnotexist.com/img-new/img3.jpg"
        ]
      },
      {
        "address": "5178 Graceland Crossing",
        "description": "Nulla ut erat id mauris vulputate elementum. Nullam varius. Nulla facilisi.",
        "latitude": 53.3723602,
        "longitude": -0.7009333,
        "images": [
          "https://thisrentaldoesnotexist.com/img-new/img1.jpg"
        ]
      },
      {
        "address": "04 Gerald Center",
        "description": "Curabitur in libero ut massa volutpat convallis. Morbi odio odio, elementum eu, interdum eu, tincidunt in, leo. Maecenas pulvinar lobortis est.",
        "latitude": 53.6808257,
        "longitude": 16.9312789,
        "images": [
          "https://thisrentaldoesnotexist.com/img-new/img1.jpg",
          "https://thisrentaldoesnotexist.com/img-new/img2.jpg"
        ]
      },
      {
        "address": "713 Mosinee Plaza",
        "description": "Vestibulum quam sapien, varius ut, blandit non, interdum in, ante. Vestibulum ante ipsum primis in faucibus orci luctus et ultrices posuere cubilia Curae; Duis faucibus accumsan odio. Curabitur convallis.",
        "latitude": 40.8288144,
        "longitude": 46.0166879,
        "images": [
          "https://thisrentaldoesnotexist.com/img-new/img1.jpg",
          "https://thisrentaldoesnotexist.com/img-new/img2.jpg",
          "https://thisrentaldoesnotexist.com/img-new/img3.jpg"
        ]
      }
    ]
  },
  {
    "id": 15,
    "first_name": "Clim",
    "last_name": "Dowsett",
    "telephone": "3629472584",
    "email": "cdowsette@scientificamerican.com",
    "profile_image": "https://thisrentaldoesnotexist.com/img-new/img1.jpg",
    "listings": [
      {
        "address": "98447 Anhalt Alley",
        "description": "Maecenas leo odio, condimentum id, luctus nec, molestie sed, justo. Pellentesque viverra pede ac diam. Cras pellentesque volutpat dui.",
        "latitude": 26.6646381,
        "longitude": 87.271781,
        "images": [
          "https://thisrentaldoesnotexist.com/img-new/img1.jpg",
          "https://thisrentaldoesnotexist.com/img-new/img2.jpg"
        ]
      },
      {
        "address": "01283 Independence Way",
        "description": "Maecenas tristique, est et tempus semper, est quam pharetra magna, ac consequat metus sapien ut nunc. Vestibulum ante ipsum primis in faucibus orci luctus et ultrices posuere cubilia Curae; Mauris viverra diam vitae quam. Suspendisse potenti.",
        "latitude": 3.6135482,
        "longitude": 98.5025286,
        "images": [
          "https://thisrentaldoesnotexist.com/img-new/img1.jpg",
          "https://thisrentaldoesnotexist.com/img-new/img2.jpg"
        ]
      },
      {
        "address": "5 Graceland Terrace",
        "description": "In sagittis dui vel nisl. Duis ac nibh. Fusce lacus purus, aliquet at, feugiat non, pretium quis, lectus.",
        "latitude": 27.622768,
        "longitude": 113.854556,
        "images": [
          "https://thisrentaldoesnotexist.com/img-new/img1.jpg"
        ]
      },
      {
        "address": "32 Brentwood Drive",
        "description": "Proin interdum mauris non ligula pellentesque ultrices. Phasellus id sapien in sapien iaculis congue. Vivamus metus arcu, adipiscing molestie, hendrerit at, vulputate vitae, nisl.",
        "latitude": -12.8446575,
        "longitude": 45.1073445,
        "images": [
          "https://thisrentaldoesnotexist.com/img-new/img1.jpg",
          "https://thisrentaldoesnotexist.com/img-new/img2.jpg"
        ]
      },
      {
        "address": "4 Maryland Avenue",
        "description": "In hac habitasse platea dictumst. Etiam faucibus cursus urna. Ut tellus.",
        "latitude": -20.1215224,
        "longitude": -40.3077898,
        "images": [
          "https://thisrentaldoesnotexist.com/img-new/img1.jpg",
          "https://thisrentaldoesnotexist.com/img-new/img2.jpg"
        ]
      },
      {
        "address": "98 Charing Cross Alley",
        "description": "Praesent blandit. Nam nulla. Integer pede justo, lacinia eget, tincidunt eget, tempus vel, pede.",
        "latitude": 37.438101,
        "longitude": 112.028866,
        "images": [
          "https://thisrentaldoesnotexist.com/img-new/img1.jpg",
          "https://thisrentaldoesnotexist.com/img-new/img2.jpg"
        ]
      },
      {
        "address": "92705 Hooker Alley",
        "description": "Morbi porttitor lorem id ligula. Suspendisse ornare consequat lectus. In est risus, auctor sed, tristique in, tempus sit amet, sem.",
        "latitude": 11.7744786,
        "longitude": 124.8827037,
        "images": [
          "https://thisrentaldoesnotexist.com/img-new/img1.jpg",
          "https://thisrentaldoesnotexist.com/img-new/img2.jpg",
          "https://thisrentaldoesnotexist.com/img-new/img3.jpg"
        ]
      },
      {
        "address": "0 Spaight Terrace",
        "description": "Curabitur at ipsum ac tellus semper interdum. Mauris ullamcorper purus sit amet nulla. Quisque arcu libero, rutrum ac, lobortis vel, dapibus at, diam.",
        "latitude": 52.804249,
        "longitude": 6.186692,
        "images": [
          "https://thisrentaldoesnotexist.com/img-new/img1.jpg"
        ]
      }
    ]
  },
  {
    "id": 16,
    "first_name": "Ulysses",
    "last_name": "Thomazin",
    "telephone": "6897075049",
    "email": "uthomazinf@flickr.com",
    "profile_image": "http://dummyimage.com/250x250.png/ff4444/ffffff",
    "listings": [
      {
        "address": "9 Springview Lane",
        "description": "Cras mi pede, malesuada in, imperdiet et, commodo vulputate, justo. In blandit ultrices enim. Lorem ipsum dolor sit amet, consectetuer adipiscing elit.",
        "latitude": 51.6661372,
        "longitude": 82.756927,
        "images": [
          "https://thisrentaldoesnotexist.com/img-new/img1.jpg"
        ]
      },
      {
        "address": "0 Fordem Circle",
        "description": "Maecenas leo odio, condimentum id, luctus nec, molestie sed, justo. Pellentesque viverra pede ac diam. Cras pellentesque volutpat dui.",
        "latitude": -6.2424962,
        "longitude": 106.11399,
        "images": [
          "https://thisrentaldoesnotexist.com/img-new/img1.jpg",
          "https://thisrentaldoesnotexist.com/img-new/img2.jpg"
        ]
      },
      {
        "address": "02 Oriole Way",
        "description": "Vestibulum ac est lacinia nisi venenatis tristique. Fusce congue, diam id ornare imperdiet, sapien urna pretium nisl, ut volutpat sapien arcu sed augue. Aliquam erat volutpat.",
        "latitude": -6.9244486,
        "longitude": 107.6365834,
        "images": [
          "https://thisrentaldoesnotexist.com/img-new/img1.jpg",
          "https://thisrentaldoesnotexist.com/img-new/img2.jpg"
        ]
      },
      {
        "address": "348 Doe Crossing Pass",
        "description": "Curabitur gravida nisi at nibh. In hac habitasse platea dictumst. Aliquam augue quam, sollicitudin vitae, consectetuer eget, rutrum at, lorem.",
        "latitude": 41.8815942,
        "longitude": -8.628833,
        "images": [
          "https://thisrentaldoesnotexist.com/img-new/img1.jpg"
        ]
      },
      {
        "address": "1226 Pine View Street",
        "description": "In hac habitasse platea dictumst. Morbi vestibulum, velit id pretium iaculis, diam erat fermentum justo, nec condimentum neque sapien placerat ante. Nulla justo.",
        "latitude": 37.366903,
        "longitude": 114.926383,
        "images": [
          "https://thisrentaldoesnotexist.com/img-new/img1.jpg",
          "https://thisrentaldoesnotexist.com/img-new/img2.jpg",
          "https://thisrentaldoesnotexist.com/img-new/img3.jpg"
        ]
      },
      {
        "address": "9 Rigney Parkway",
        "description": "In hac habitasse platea dictumst. Morbi vestibulum, velit id pretium iaculis, diam erat fermentum justo, nec condimentum neque sapien placerat ante. Nulla justo.",
        "latitude": 20.7236765,
        "longitude": 121.8097656,
        "images": [
          "https://thisrentaldoesnotexist.com/img-new/img1.jpg"
        ]
      },
      {
        "address": "338 5th Parkway",
        "description": "Proin interdum mauris non ligula pellentesque ultrices. Phasellus id sapien in sapien iaculis congue. Vivamus metus arcu, adipiscing molestie, hendrerit at, vulputate vitae, nisl.",
        "latitude": 57.767136,
        "longitude": 24.8770839,
        "images": [
          "https://thisrentaldoesnotexist.com/img-new/img1.jpg",
          "https://thisrentaldoesnotexist.com/img-new/img2.jpg",
          "https://thisrentaldoesnotexist.com/img-new/img3.jpg"
        ]
      }
    ]
  },
  {
    "id": 17,
    "first_name": "Dame",
    "last_name": "Clewley",
    "telephone": "4783203845",
    "email": "dclewleyg@narod.ru",
    "profile_image": "http://dummyimage.com/250x250.png/ff4444/ffffff",
    "listings": [
      {
        "address": "762 Anderson Circle",
        "description": "In congue. Etiam justo. Etiam pretium iaculis justo.",
        "latitude": 30.83537,
        "longitude": 115.636717,
        "images": [
          "https://thisrentaldoesnotexist.com/img-new/img1.jpg",
          "https://thisrentaldoesnotexist.com/img-new/img2.jpg"
        ]
      },
      {
        "address": "0142 Glendale Parkway",
        "description": "Nullam porttitor lacus at turpis. Donec posuere metus vitae ipsum. Aliquam non mauris.",
        "latitude": 11.362015,
        "longitude": 124.3470222,
        "images": [
          "https://thisrentaldoesnotexist.com/img-new/img1.jpg"
        ]
      },
      {
        "address": "18 Dixon Junction",
        "description": "Fusce posuere felis sed lacus. Morbi sem mauris, laoreet ut, rhoncus aliquet, pulvinar sed, nisl. Nunc rhoncus dui vel sem.",
        "latitude": -19.6238346,
        "longitude": -43.2182878,
        "images": [
          "https://thisrentaldoesnotexist.com/img-new/img1.jpg",
          "https://thisrentaldoesnotexist.com/img-new/img2.jpg"
        ]
      },
      {
        "address": "45374 Superior Place",
        "description": "Nullam sit amet turpis elementum ligula vehicula consequat. Morbi a ipsum. Integer a nibh.",
        "latitude": 42.9438711,
        "longitude": 72.7617572,
        "images": [
          "https://thisrentaldoesnotexist.com/img-new/img1.jpg",
          "https://thisrentaldoesnotexist.com/img-new/img2.jpg"
        ]
      },
      {
        "address": "797 Declaration Pass",
        "description": "Duis consequat dui nec nisi volutpat eleifend. Donec ut dolor. Morbi vel lectus in quam fringilla rhoncus.",
        "latitude": -10.2183,
        "longitude": 123.6274,
        "images": [
          "https://thisrentaldoesnotexist.com/img-new/img1.jpg",
          "https://thisrentaldoesnotexist.com/img-new/img2.jpg",
          "https://thisrentaldoesnotexist.com/img-new/img3.jpg"
        ]
      },
      {
        "address": "8152 Manitowish Park",
        "description": "Suspendisse potenti. In eleifend quam a odio. In hac habitasse platea dictumst.",
        "latitude": -21.9718816,
        "longitude": 16.9063491,
        "images": [
          "https://thisrentaldoesnotexist.com/img-new/img1.jpg",
          "https://thisrentaldoesnotexist.com/img-new/img2.jpg",
          "https://thisrentaldoesnotexist.com/img-new/img3.jpg"
        ]
      },
      {
        "address": "1111 Morrow Way",
        "description": "Vestibulum quam sapien, varius ut, blandit non, interdum in, ante. Vestibulum ante ipsum primis in faucibus orci luctus et ultrices posuere cubilia Curae; Duis faucibus accumsan odio. Curabitur convallis.",
        "latitude": 50.83312,
        "longitude": -118.98565,
        "images": [
          "https://thisrentaldoesnotexist.com/img-new/img1.jpg"
        ]
      },
      {
        "address": "856 Superior Crossing",
        "description": "Fusce posuere felis sed lacus. Morbi sem mauris, laoreet ut, rhoncus aliquet, pulvinar sed, nisl. Nunc rhoncus dui vel sem.",
        "latitude": 44.0086458,
        "longitude": 22.9355752,
        "images": [
          "https://thisrentaldoesnotexist.com/img-new/img1.jpg",
          "https://thisrentaldoesnotexist.com/img-new/img2.jpg"
        ]
      },
      {
        "address": "79699 Green Terrace",
        "description": "Curabitur at ipsum ac tellus semper interdum. Mauris ullamcorper purus sit amet nulla. Quisque arcu libero, rutrum ac, lobortis vel, dapibus at, diam.",
        "latitude": 34.58,
        "longitude": -4.73,
        "images": [
          "https://thisrentaldoesnotexist.com/img-new/img1.jpg"
        ]
      },
      {
        "address": "7125 Melrose Parkway",
        "description": "Quisque porta volutpat erat. Quisque erat eros, viverra eget, congue eget, semper rutrum, nulla. Nunc purus.",
        "latitude": 38.8426524,
        "longitude": -9.1289108,
        "images": [
          "https://thisrentaldoesnotexist.com/img-new/img1.jpg",
          "https://thisrentaldoesnotexist.com/img-new/img2.jpg",
          "https://thisrentaldoesnotexist.com/img-new/img3.jpg"
        ]
      }
    ]
  },
  {
    "id": 18,
    "first_name": "Tanitansy",
    "last_name": "Ciraldo",
    "telephone": "8955299889",
    "email": "tciraldoh@cnn.com",
    "profile_image": "http://dummyimage.com/250x250.png/cc0000/ffffff",
    "listings": [
      {
        "address": "9 Sunfield Place",
        "description": "Donec diam neque, vestibulum eget, vulputate ut, ultrices vel, augue. Vestibulum ante ipsum primis in faucibus orci luctus et ultrices posuere cubilia Curae; Donec pharetra, magna vestibulum aliquet ultrices, erat tortor sollicitudin mi, sit amet lobortis sapien sapien non mi. Integer ac neque.",
        "latitude": 37.730256,
        "longitude": 139.0660748,
        "images": [
          "https://thisrentaldoesnotexist.com/img-new/img1.jpg"
        ]
      },
      {
        "address": "09 Melby Alley",
        "description": "In hac habitasse platea dictumst. Etiam faucibus cursus urna. Ut tellus.",
        "latitude": 32.9187879,
        "longitude": 115.9811735,
        "images": [
          "https://thisrentaldoesnotexist.com/img-new/img1.jpg",
          "https://thisrentaldoesnotexist.com/img-new/img2.jpg",
          "https://thisrentaldoesnotexist.com/img-new/img3.jpg"
        ]
      },
      {
        "address": "71 Moulton Drive",
        "description": "Maecenas tristique, est et tempus semper, est quam pharetra magna, ac consequat metus sapien ut nunc. Vestibulum ante ipsum primis in faucibus orci luctus et ultrices posuere cubilia Curae; Mauris viverra diam vitae quam. Suspendisse potenti.",
        "latitude": 31.150681,
        "longitude": 121.124178,
        "images": [
          "https://thisrentaldoesnotexist.com/img-new/img1.jpg",
          "https://thisrentaldoesnotexist.com/img-new/img2.jpg",
          "https://thisrentaldoesnotexist.com/img-new/img3.jpg"
        ]
      },
      {
        "address": "3 Bashford Plaza",
        "description": "Lorem ipsum dolor sit amet, consectetuer adipiscing elit. Proin risus. Praesent lectus.",
        "latitude": -12.6339242,
        "longitude": 28.0537367,
        "images": [
          "https://thisrentaldoesnotexist.com/img-new/img1.jpg",
          "https://thisrentaldoesnotexist.com/img-new/img2.jpg",
          "https://thisrentaldoesnotexist.com/img-new/img3.jpg"
        ]
      },
      {
        "address": "5590 Sycamore Terrace",
        "description": "In hac habitasse platea dictumst. Etiam faucibus cursus urna. Ut tellus.",
        "latitude": 16.1535575,
        "longitude": -13.5032081,
        "images": [
          "https://thisrentaldoesnotexist.com/img-new/img1.jpg",
          "https://thisrentaldoesnotexist.com/img-new/img2.jpg"
        ]
      },
      {
        "address": "41685 Spenser Plaza",
        "description": "Quisque porta volutpat erat. Quisque erat eros, viverra eget, congue eget, semper rutrum, nulla. Nunc purus.",
        "latitude": -36.7333,
        "longitude": -72.9833,
        "images": [
          "https://thisrentaldoesnotexist.com/img-new/img1.jpg",
          "https://thisrentaldoesnotexist.com/img-new/img2.jpg",
          "https://thisrentaldoesnotexist.com/img-new/img3.jpg"
        ]
      },
      {
        "address": "2 Clyde Gallagher Plaza",
        "description": "Sed ante. Vivamus tortor. Duis mattis egestas metus.",
        "latitude": -25.3810275,
        "longitude": -57.1577041,
        "images": [
          "https://thisrentaldoesnotexist.com/img-new/img1.jpg"
        ]
      },
      {
        "address": "73065 Pankratz Avenue",
        "description": "Cum sociis natoque penatibus et magnis dis parturient montes, nascetur ridiculus mus. Vivamus vestibulum sagittis sapien. Cum sociis natoque penatibus et magnis dis parturient montes, nascetur ridiculus mus.",
        "latitude": 13.8506865,
        "longitude": 44.7029603,
        "images": [
          "https://thisrentaldoesnotexist.com/img-new/img1.jpg"
        ]
      }
    ]
  },
  {
    "id": 19,
    "first_name": "Anna",
    "last_name": "Minghella",
    "telephone": "2734203918",
    "email": "aminghellai@lycos.com",
    "profile_image": "http://dummyimage.com/250x250.png/5fa2dd/ffffff",
    "listings": [
      {
        "address": "62 Corry Road",
        "description": "Phasellus sit amet erat. Nulla tempus. Vivamus in felis eu sapien cursus vestibulum.",
        "latitude": 29.358966,
        "longitude": 119.222105,
        "images": [
          "https://thisrentaldoesnotexist.com/img-new/img1.jpg",
          "https://thisrentaldoesnotexist.com/img-new/img2.jpg"
        ]
      },
      {
        "address": "60718 Anniversary Place",
        "description": "Integer ac leo. Pellentesque ultrices mattis odio. Donec vitae nisi.",
        "latitude": 34.540852,
        "longitude": 109.44096,
        "images": [
          "https://thisrentaldoesnotexist.com/img-new/img1.jpg",
          "https://thisrentaldoesnotexist.com/img-new/img2.jpg",
          "https://thisrentaldoesnotexist.com/img-new/img3.jpg"
        ]
      },
      {
        "address": "27 Forest Center",
        "description": "Etiam vel augue. Vestibulum rutrum rutrum neque. Aenean auctor gravida sem.",
        "latitude": -16.3846284,
        "longitude": -51.2213044,
        "images": [
          "https://thisrentaldoesnotexist.com/img-new/img1.jpg",
          "https://thisrentaldoesnotexist.com/img-new/img2.jpg",
          "https://thisrentaldoesnotexist.com/img-new/img3.jpg"
        ]
      },
      {
        "address": "00 Saint Paul Court",
        "description": "Morbi non lectus. Aliquam sit amet diam in magna bibendum imperdiet. Nullam orci pede, venenatis non, sodales sed, tincidunt eu, felis.",
        "latitude": 32.663268,
        "longitude": 96.609741,
        "images": [
          "https://thisrentaldoesnotexist.com/img-new/img1.jpg",
          "https://thisrentaldoesnotexist.com/img-new/img2.jpg"
        ]
      },
      {
        "address": "81 Stang Trail",
        "description": "Curabitur gravida nisi at nibh. In hac habitasse platea dictumst. Aliquam augue quam, sollicitudin vitae, consectetuer eget, rutrum at, lorem.",
        "latitude": 51.725198,
        "longitude": 75.3150685,
        "images": [
          "https://thisrentaldoesnotexist.com/img-new/img1.jpg"
        ]
      }
    ]
  },
  {
    "id": 20,
    "first_name": "Andrea",
    "last_name": "Worboys",
    "telephone": "3291198363",
    "email": "aworboysj@wunderground.com",
    "profile_image": "https://thisrentaldoesnotexist.com/img-new/img1.jpg",
    "listings": [
      {
        "address": "6157 Kingsford Road",
        "description": "Praesent id massa id nisl venenatis lacinia. Aenean sit amet justo. Morbi ut odio.",
        "latitude": 31.457735,
        "longitude": 121.13055,
        "images": [
          "https://thisrentaldoesnotexist.com/img-new/img1.jpg",
          "https://thisrentaldoesnotexist.com/img-new/img2.jpg",
          "https://thisrentaldoesnotexist.com/img-new/img3.jpg"
        ]
      },
      {
        "address": "2 Warbler Terrace",
        "description": "Donec diam neque, vestibulum eget, vulputate ut, ultrices vel, augue. Vestibulum ante ipsum primis in faucibus orci luctus et ultrices posuere cubilia Curae; Donec pharetra, magna vestibulum aliquet ultrices, erat tortor sollicitudin mi, sit amet lobortis sapien sapien non mi. Integer ac neque.",
        "latitude": 52.8818616,
        "longitude": 17.5860395,
        "images": [
          "https://thisrentaldoesnotexist.com/img-new/img1.jpg"
        ]
      },
      {
        "address": "977 1st Court",
        "description": "Quisque porta volutpat erat. Quisque erat eros, viverra eget, congue eget, semper rutrum, nulla. Nunc purus.",
        "latitude": 37.105382,
        "longitude": 116.694361,
        "images": [
          "https://thisrentaldoesnotexist.com/img-new/img1.jpg"
        ]
      },
      {
        "address": "33 Park Meadow Plaza",
        "description": "Vestibulum ac est lacinia nisi venenatis tristique. Fusce congue, diam id ornare imperdiet, sapien urna pretium nisl, ut volutpat sapien arcu sed augue. Aliquam erat volutpat.",
        "latitude": -8.3124202,
        "longitude": 123.7238308,
        "images": [
          "https://thisrentaldoesnotexist.com/img-new/img1.jpg",
          "https://thisrentaldoesnotexist.com/img-new/img2.jpg"
        ]
      },
      {
        "address": "9 Green Ridge Park",
        "description": "Proin eu mi. Nulla ac enim. In tempor, turpis nec euismod scelerisque, quam turpis adipiscing lorem, vitae mattis nibh ligula nec sem.",
        "latitude": 53.3004898,
        "longitude": -6.2634596,
        "images": [
          "https://thisrentaldoesnotexist.com/img-new/img1.jpg",
          "https://thisrentaldoesnotexist.com/img-new/img2.jpg"
        ]
      },
      {
        "address": "058 Cambridge Pass",
        "description": "Aenean fermentum. Donec ut mauris eget massa tempor convallis. Nulla neque libero, convallis eget, eleifend luctus, ultricies eu, nibh.",
        "latitude": 23.774635,
        "longitude": 115.084794,
        "images": [
          "https://thisrentaldoesnotexist.com/img-new/img1.jpg",
          "https://thisrentaldoesnotexist.com/img-new/img2.jpg"
        ]
      }
    ]
  },
  {
    "id": 21,
    "first_name": "Luce",
    "last_name": "Winton",
    "telephone": "6673840431",
    "email": "lwintonk@people.com.cn",
    "profile_image": "http://dummyimage.com/250x250.png/5fa2dd/ffffff",
    "listings": [
      {
        "address": "3228 Bunting Park",
        "description": "Praesent id massa id nisl venenatis lacinia. Aenean sit amet justo. Morbi ut odio.",
        "latitude": 29.654838,
        "longitude": 91.140552,
        "images": [
          "https://thisrentaldoesnotexist.com/img-new/img1.jpg"
        ]
      },
      {
        "address": "05064 Laurel Junction",
        "description": "Mauris enim leo, rhoncus sed, vestibulum sit amet, cursus id, turpis. Integer aliquet, massa id lobortis convallis, tortor risus dapibus augue, vel accumsan tellus nisi eu orci. Mauris lacinia sapien quis libero.",
        "latitude": 18.04406,
        "longitude": 121.71871,
        "images": [
          "https://thisrentaldoesnotexist.com/img-new/img1.jpg"
        ]
      },
      {
        "address": "7 Charing Cross Trail",
        "description": "Vestibulum ac est lacinia nisi venenatis tristique. Fusce congue, diam id ornare imperdiet, sapien urna pretium nisl, ut volutpat sapien arcu sed augue. Aliquam erat volutpat.",
        "latitude": 62.0096447,
        "longitude": -6.7716551,
        "images": [
          "https://thisrentaldoesnotexist.com/img-new/img1.jpg"
        ]
      },
      {
        "address": "96 Di Loreto Plaza",
        "description": "Duis bibendum, felis sed interdum venenatis, turpis enim blandit mi, in porttitor pede justo eu massa. Donec dapibus. Duis at velit eu est congue elementum.",
        "latitude": -9.113585,
        "longitude": -37.119659,
        "images": [
          "https://thisrentaldoesnotexist.com/img-new/img1.jpg"
        ]
      },
      {
        "address": "3 Thompson Trail",
        "description": "Integer tincidunt ante vel ipsum. Praesent blandit lacinia erat. Vestibulum sed magna at nunc commodo placerat.",
        "latitude": 53.0903178,
        "longitude": 8.9354031,
        "images": [
          "https://thisrentaldoesnotexist.com/img-new/img1.jpg",
          "https://thisrentaldoesnotexist.com/img-new/img2.jpg"
        ]
      }
    ]
  },
  {
    "id": 22,
    "first_name": "Otha",
    "last_name": "Evill",
    "telephone": "7559276008",
    "email": "oevilll@barnesandnoble.com",
    "profile_image": "http://dummyimage.com/250x250.png/ff4444/ffffff",
    "listings": [
      {
        "address": "9 Lyons Parkway",
        "description": "Duis aliquam convallis nunc. Proin at turpis a pede posuere nonummy. Integer non velit.",
        "latitude": 22.7100789,
        "longitude": 113.8547735,
        "images": [
          "https://thisrentaldoesnotexist.com/img-new/img1.jpg",
          "https://thisrentaldoesnotexist.com/img-new/img2.jpg"
        ]
      },
      {
        "address": "87 Ridge Oak Lane",
        "description": "In congue. Etiam justo. Etiam pretium iaculis justo.",
        "latitude": -2.0076624,
        "longitude": 34.3434119,
        "images": [
          "https://thisrentaldoesnotexist.com/img-new/img1.jpg",
          "https://thisrentaldoesnotexist.com/img-new/img2.jpg",
          "https://thisrentaldoesnotexist.com/img-new/img3.jpg"
        ]
      },
      {
        "address": "430 Bay Place",
        "description": "Curabitur at ipsum ac tellus semper interdum. Mauris ullamcorper purus sit amet nulla. Quisque arcu libero, rutrum ac, lobortis vel, dapibus at, diam.",
        "latitude": 26.1256441,
        "longitude": 50.4980362,
        "images": [
          "https://thisrentaldoesnotexist.com/img-new/img1.jpg"
        ]
      },
      {
        "address": "45587 Ruskin Drive",
        "description": "Maecenas tristique, est et tempus semper, est quam pharetra magna, ac consequat metus sapien ut nunc. Vestibulum ante ipsum primis in faucibus orci luctus et ultrices posuere cubilia Curae; Mauris viverra diam vitae quam. Suspendisse potenti.",
        "latitude": 46.1468572,
        "longitude": 6.0796844,
        "images": [
          "https://thisrentaldoesnotexist.com/img-new/img1.jpg",
          "https://thisrentaldoesnotexist.com/img-new/img2.jpg"
        ]
      },
      {
        "address": "48 Merry Place",
        "description": "Duis aliquam convallis nunc. Proin at turpis a pede posuere nonummy. Integer non velit.",
        "latitude": 32.20068,
        "longitude": 35.21293,
        "images": [
          "https://thisrentaldoesnotexist.com/img-new/img1.jpg",
          "https://thisrentaldoesnotexist.com/img-new/img2.jpg"
        ]
      },
      {
        "address": "29385 Farwell Street",
        "description": "Morbi non lectus. Aliquam sit amet diam in magna bibendum imperdiet. Nullam orci pede, venenatis non, sodales sed, tincidunt eu, felis.",
        "latitude": 13.5460383,
        "longitude": -14.9717426,
        "images": [
          "https://thisrentaldoesnotexist.com/img-new/img1.jpg",
          "https://thisrentaldoesnotexist.com/img-new/img2.jpg",
          "https://thisrentaldoesnotexist.com/img-new/img3.jpg"
        ]
      }
    ]
  },
  {
    "id": 23,
    "first_name": "Mano",
    "last_name": "Woolhouse",
    "telephone": "4569032958",
    "email": "mwoolhousem@stanford.edu",
    "profile_image": "http://dummyimage.com/250x250.png/ff4444/ffffff",
    "listings": [
      {
        "address": "6941 Pepper Wood Plaza",
        "description": "Etiam vel augue. Vestibulum rutrum rutrum neque. Aenean auctor gravida sem.",
        "latitude": 57.779138,
        "longitude": 12.0602512,
        "images": [
          "https://thisrentaldoesnotexist.com/img-new/img1.jpg",
          "https://thisrentaldoesnotexist.com/img-new/img2.jpg"
        ]
      },
      {
        "address": "3750 Colorado Trail",
        "description": "In congue. Etiam justo. Etiam pretium iaculis justo.",
        "latitude": 56.5155642,
        "longitude": 64.631671,
        "images": [
          "https://thisrentaldoesnotexist.com/img-new/img1.jpg"
        ]
      },
      {
        "address": "18 Barnett Terrace",
        "description": "Duis consequat dui nec nisi volutpat eleifend. Donec ut dolor. Morbi vel lectus in quam fringilla rhoncus.",
        "latitude": 55.4947802,
        "longitude": 109.1531996,
        "images": [
          "https://thisrentaldoesnotexist.com/img-new/img1.jpg",
          "https://thisrentaldoesnotexist.com/img-new/img2.jpg",
          "https://thisrentaldoesnotexist.com/img-new/img3.jpg",
          "https://thisrentaldoesnotexist.com/img-new/img4.jpg"
        ]
      },
      {
        "address": "00 Scoville Junction",
        "description": "Pellentesque at nulla. Suspendisse potenti. Cras in purus eu magna vulputate luctus.",
        "latitude": 55.6720347,
        "longitude": 12.5911341,
        "images": [
          "https://thisrentaldoesnotexist.com/img-new/img1.jpg",
          "https://thisrentaldoesnotexist.com/img-new/img2.jpg",
          "https://thisrentaldoesnotexist.com/img-new/img3.jpg"
        ]
      },
      {
        "address": "0 Nova Plaza",
        "description": "Vestibulum ac est lacinia nisi venenatis tristique. Fusce congue, diam id ornare imperdiet, sapien urna pretium nisl, ut volutpat sapien arcu sed augue. Aliquam erat volutpat.",
        "latitude": 45.054535,
        "longitude": 15.8966615,
        "images": [
          "https://thisrentaldoesnotexist.com/img-new/img1.jpg"
        ]
      },
      {
        "address": "66 Sommers Point",
        "description": "Integer ac leo. Pellentesque ultrices mattis odio. Donec vitae nisi.",
        "latitude": 47.6632745,
        "longitude": 1.206057,
        "images": [
          "https://thisrentaldoesnotexist.com/img-new/img1.jpg",
          "https://thisrentaldoesnotexist.com/img-new/img2.jpg",
          "https://thisrentaldoesnotexist.com/img-new/img3.jpg",
          "https://thisrentaldoesnotexist.com/img-new/img4.jpg"
        ]
      },
      {
        "address": "18193 Scoville Center",
        "description": "Proin interdum mauris non ligula pellentesque ultrices. Phasellus id sapien in sapien iaculis congue. Vivamus metus arcu, adipiscing molestie, hendrerit at, vulputate vitae, nisl.",
        "latitude": 40.9690916,
        "longitude": -8.474627,
        "images": [
          "https://thisrentaldoesnotexist.com/img-new/img1.jpg",
          "https://thisrentaldoesnotexist.com/img-new/img2.jpg"
        ]
      },
      {
        "address": "23 Calypso Avenue",
        "description": "Morbi non lectus. Aliquam sit amet diam in magna bibendum imperdiet. Nullam orci pede, venenatis non, sodales sed, tincidunt eu, felis.",
        "latitude": 25.49872,
        "longitude": 119.790168,
        "images": [
          "https://thisrentaldoesnotexist.com/img-new/img1.jpg",
          "https://thisrentaldoesnotexist.com/img-new/img2.jpg",
          "https://thisrentaldoesnotexist.com/img-new/img3.jpg",
          "https://thisrentaldoesnotexist.com/img-new/img4.jpg"
        ]
      },
      {
        "address": "50 Tennessee Circle",
        "description": "Fusce posuere felis sed lacus. Morbi sem mauris, laoreet ut, rhoncus aliquet, pulvinar sed, nisl. Nunc rhoncus dui vel sem.",
        "latitude": 37.9854094,
        "longitude": 23.7419512,
        "images": [
          "https://thisrentaldoesnotexist.com/img-new/img1.jpg"
        ]
      }
    ]
  },
  {
    "id": 24,
    "first_name": "Noach",
    "last_name": "Jentin",
    "telephone": "6794026613",
    "email": "njentinn@dailymotion.com",
    "profile_image": "https://thisrentaldoesnotexist.com/img-new/img1.jpg",
    "listings": [
      {
        "address": "56393 Schurz Center",
        "description": "Lorem ipsum dolor sit amet, consectetuer adipiscing elit. Proin risus. Praesent lectus.",
        "latitude": -34.7682125,
        "longitude": -58.3613645,
        "images": [
          "https://thisrentaldoesnotexist.com/img-new/img1.jpg",
          "https://thisrentaldoesnotexist.com/img-new/img2.jpg"
        ]
      },
      {
        "address": "0 Buell Lane",
        "description": "Maecenas ut massa quis augue luctus tincidunt. Nulla mollis molestie lorem. Quisque ut erat.",
        "latitude": 23.106401,
        "longitude": 113.459749,
        "images": [
          "https://thisrentaldoesnotexist.com/img-new/img1.jpg"
        ]
      },
      {
        "address": "60638 Golf View Court",
        "description": "Cras non velit nec nisi vulputate nonummy. Maecenas tincidunt lacus at velit. Vivamus vel nulla eget eros elementum pellentesque.",
        "latitude": -7.2760371,
        "longitude": 107.6925674,
        "images": [
          "https://thisrentaldoesnotexist.com/img-new/img1.jpg",
          "https://thisrentaldoesnotexist.com/img-new/img2.jpg"
        ]
      },
      {
        "address": "4 Packers Park",
        "description": "Curabitur in libero ut massa volutpat convallis. Morbi odio odio, elementum eu, interdum eu, tincidunt in, leo. Maecenas pulvinar lobortis est.",
        "latitude": -8.6866263,
        "longitude": -36.2847751,
        "images": [
          "https://thisrentaldoesnotexist.com/img-new/img1.jpg"
        ]
      },
      {
        "address": "63 Anhalt Trail",
        "description": "Maecenas ut massa quis augue luctus tincidunt. Nulla mollis molestie lorem. Quisque ut erat.",
        "latitude": 50.7022235,
        "longitude": 3.1685214,
        "images": [
          "https://thisrentaldoesnotexist.com/img-new/img1.jpg",
          "https://thisrentaldoesnotexist.com/img-new/img2.jpg",
          "https://thisrentaldoesnotexist.com/img-new/img3.jpg"
        ]
      },
      {
        "address": "99 Nancy Parkway",
        "description": "Pellentesque at nulla. Suspendisse potenti. Cras in purus eu magna vulputate luctus.",
        "latitude": 24.89604,
        "longitude": 118.592147,
        "images": [
          "https://thisrentaldoesnotexist.com/img-new/img1.jpg"
        ]
      }
    ]
  },
  {
    "id": 25,
    "first_name": "Ayn",
    "last_name": "Hassell",
    "telephone": "6388659961",
    "email": "ahassello@prnewswire.com",
    "profile_image": "http://dummyimage.com/250x250.png/cc0000/ffffff",
    "listings": [
      {
        "address": "794 Miller Terrace",
        "description": "Quisque id justo sit amet sapien dignissim vestibulum. Vestibulum ante ipsum primis in faucibus orci luctus et ultrices posuere cubilia Curae; Nulla dapibus dolor vel est. Donec odio justo, sollicitudin ut, suscipit a, feugiat et, eros.",
        "latitude": 32.2821952,
        "longitude": -90.2291565,
        "images": [
          "https://thisrentaldoesnotexist.com/img-new/img1.jpg",
          "https://thisrentaldoesnotexist.com/img-new/img2.jpg"
        ]
      },
      {
        "address": "0 Lake View Terrace",
        "description": "Sed ante. Vivamus tortor. Duis mattis egestas metus.",
        "latitude": 40.180793,
        "longitude": 44.5281754,
        "images": [
          "https://thisrentaldoesnotexist.com/img-new/img1.jpg"
        ]
      },
      {
        "address": "04 Londonderry Hill",
        "description": "Sed sagittis. Nam congue, risus semper porta volutpat, quam pede lobortis ligula, sit amet eleifend pede libero quis orci. Nullam molestie nibh in lectus.",
        "latitude": 40.6207889,
        "longitude": -7.5388857,
        "images": [
          "https://thisrentaldoesnotexist.com/img-new/img1.jpg",
          "https://thisrentaldoesnotexist.com/img-new/img2.jpg",
          "https://thisrentaldoesnotexist.com/img-new/img3.jpg",
          "https://thisrentaldoesnotexist.com/img-new/img4.jpg"
        ]
      },
      {
        "address": "20358 Eastwood Junction",
        "description": "Nullam sit amet turpis elementum ligula vehicula consequat. Morbi a ipsum. Integer a nibh.",
        "latitude": 32.032726,
        "longitude": 35.288375,
        "images": [
          "https://thisrentaldoesnotexist.com/img-new/img1.jpg"
        ]
      },
      {
        "address": "75 Karstens Alley",
        "description": "Duis bibendum, felis sed interdum venenatis, turpis enim blandit mi, in porttitor pede justo eu massa. Donec dapibus. Duis at velit eu est congue elementum.",
        "latitude": 38.87,
        "longitude": -77.23,
        "images": [
          "https://thisrentaldoesnotexist.com/img-new/img1.jpg",
          "https://thisrentaldoesnotexist.com/img-new/img2.jpg"
        ]
      },
      {
        "address": "6 Sauthoff Junction",
        "description": "Duis bibendum, felis sed interdum venenatis, turpis enim blandit mi, in porttitor pede justo eu massa. Donec dapibus. Duis at velit eu est congue elementum.",
        "latitude": 39.7167888,
        "longitude": -104.9665815,
        "images": [
          "https://thisrentaldoesnotexist.com/img-new/img1.jpg",
          "https://thisrentaldoesnotexist.com/img-new/img2.jpg"
        ]
      }
    ]
  }
]